…
This dataset has 2595176 rows and 7 columns. Variables include
id(Weather station ID), date(Date of observation), prcp(Precipitation
(tenths of mm)), snow(Snowfall (mm)), snwd(Snow depth (mm)),
tmax(Maximum temperature (tenths of degrees C)) and tmin(Minimum
temperature (tenths of degrees C)).

``` r
ny_noaa %>% 
  count(snow) %>%
  arrange(desc(n))
```

    ## # A tibble: 282 × 2
    ##     snow       n
    ##    <int>   <int>
    ##  1     0 2008508
    ##  2    NA  381221
    ##  3    25   31022
    ##  4    13   23095
    ##  5    51   18274
    ##  6    76   10173
    ##  7     8    9962
    ##  8     5    9748
    ##  9    38    9197
    ## 10     3    8790
    ## # ℹ 272 more rows
…
